[
    {
        "full": "Data.Functor.Contravariant.$<",
        "local": "$<",
        "qual": "C.$<"
    },
    {
        "full": "Data.Functor.Contravariant.>$",
        "local": ">$",
        "qual": "C.>$"
    },
    {
        "full": "Data.Functor.Contravariant.>$$<",
        "local": ">$$<",
        "qual": "C.>$$<"
    },
    {
        "full": "Data.Functor.Contravariant.>$<",
        "local": ">$<",
        "qual": "C.>$<"
    },
    {
        "full": "Data.Functor.Contravariant.Comparison",
        "local": "Comparison",
        "qual": "C.Comparison"
    },
    {
        "full": "Data.Functor.Contravariant.Comparison",
        "local": "Comparison",
        "qual": "C.Comparison"
    },
    {
        "full": "Data.Functor.Contravariant.Contravariant",
        "local": "Contravariant",
        "qual": "C.Contravariant"
    },
    {
        "full": "Data.Functor.Contravariant.Equivalence",
        "local": "Equivalence",
        "qual": "C.Equivalence"
    },
    {
        "full": "Data.Functor.Contravariant.Equivalence",
        "local": "Equivalence",
        "qual": "C.Equivalence"
    },
    {
        "full": "Data.Functor.Contravariant.Op",
        "local": "Op",
        "qual": "C.Op"
    },
    {
        "full": "Data.Functor.Contravariant.Op",
        "local": "Op",
        "qual": "C.Op"
    },
    {
        "full": "Data.Functor.Contravariant.Predicate",
        "local": "Predicate",
        "qual": "C.Predicate"
    },
    {
        "full": "Data.Functor.Contravariant.Predicate",
        "local": "Predicate",
        "qual": "C.Predicate"
    },
    {
        "full": "Data.Functor.Contravariant.comparisonEquivalence",
        "local": "comparisonEquivalence",
        "qual": "C.comparisonEquivalence"
    },
    {
        "full": "Data.Functor.Contravariant.contramap",
        "local": "contramap",
        "qual": "C.contramap"
    },
    {
        "full": "Data.Functor.Contravariant.defaultComparison",
        "local": "defaultComparison",
        "qual": "C.defaultComparison"
    },
    {
        "full": "Data.Functor.Contravariant.defaultEquivalence",
        "local": "defaultEquivalence",
        "qual": "C.defaultEquivalence"
    },
    {
        "full": "Data.Functor.Contravariant.getComparison",
        "local": "getComparison",
        "qual": "C.getComparison"
    },
    {
        "full": "Data.Functor.Contravariant.getEquivalence",
        "local": "getEquivalence",
        "qual": "C.getEquivalence"
    },
    {
        "full": "Data.Functor.Contravariant.getOp",
        "local": "getOp",
        "qual": "C.getOp"
    },
    {
        "full": "Data.Functor.Contravariant.getPredicate",
        "local": "getPredicate",
        "qual": "C.getPredicate"
    },
    {
        "full": "Data.Functor.Contravariant.phantom",
        "local": "phantom",
        "qual": "C.phantom"
    },
    {
        "full": "Medley.Wobble.wobble",
        "local": "wobble"
    },
    {
        "full": "Prelude.zip",
        "local": "zip"
    }
]
