[
    {
        "full": "Data.Functor.Contravariant.Divisible.Divisible",
        "local": "Divisible"
    },
    {
        "full": "Data.Functor.Contravariant.Divisible.conquered",
        "local": "conquered"
    }
]
